ISO-10303-21;
HEADER;
/****************************************************************
 * Generated by software with PDE/Lib inside                    *
 * PDElib Version v51a, created Fri 05/18/2009                  *
 * International Technegroup Inc. (www.iti-oh.com)              *
 ****************************************************************/
FILE_DESCRIPTION((''),'2;1');
FILE_NAME('C:\\Users\\FP34\\Dropbox\\Satur_Personal\\GRUA\\Ensamblaje2.stp','2017-01-21T19:37:03',('FP34'),(''),'Autodesk Inventor 2010','Autodesk Inventor 2010','');
FILE_SCHEMA(('AUTOMOTIVE_DESIGN { 1 0 10303 214 1 1 1 1 }'));
ENDSEC;
DATA;
#5=APPLICATION_CONTEXT('automotive design');
#6=APPLICATION_PROTOCOL_DEFINITION('International Standard','automotive_design',2001,#5);
#7=PRODUCT_CONTEXT('',#5,'mechanical');
#8=PRODUCT('Ensamblaje2','Ensamblaje2',$,(#7));
#9=PRODUCT_RELATED_PRODUCT_CATEGORY('part',$,(#8));
#10=PRODUCT_DEFINITION_FORMATION('',$,#8);
#11=PRODUCT_DEFINITION_CONTEXT('part definition',#5,'design');
#12=PRODUCT_DEFINITION('',$,#10,#11);
#18=(NAMED_UNIT(*)PLANE_ANGLE_UNIT()SI_UNIT($,.RADIAN.));
#19=DIMENSIONAL_EXPONENTS(0.0,0.0,0.0,0.0,0.0,0.0,0.0);
#20=PLANE_ANGLE_MEASURE_WITH_UNIT(PLANE_ANGLE_MEASURE(0.017453292500000),#18);
#24=(CONVERSION_BASED_UNIT('DEGREE',#20)NAMED_UNIT(#19)PLANE_ANGLE_UNIT());
#28=(NAMED_UNIT(*)SI_UNIT($,.STERADIAN.)SOLID_ANGLE_UNIT());
#32=(LENGTH_UNIT()NAMED_UNIT(*)SI_UNIT(.MILLI.,.METRE.));
#34=UNCERTAINTY_MEASURE_WITH_UNIT(LENGTH_MEASURE(0.010000000000000),#32,'DISTANCE_ACCURACY_VALUE','');
#36=(GEOMETRIC_REPRESENTATION_CONTEXT(3)GLOBAL_UNCERTAINTY_ASSIGNED_CONTEXT((#34))GLOBAL_UNIT_ASSIGNED_CONTEXT((#24,#28,#32))REPRESENTATION_CONTEXT('None','None'));
#37=AXIS2_PLACEMENT_3D('',#38,#39,#40);
#38=CARTESIAN_POINT('',(0.0,0.0,0.0));
#39=DIRECTION('',(0.0,0.0,1.0));
#40=DIRECTION('',(1.0,0.0,0.0));
#41=SHAPE_REPRESENTATION('',(#37,#658,#1302,#1314),#36);
#42=PRODUCT_DEFINITION_SHAPE('','',#12);
#43=SHAPE_DEFINITION_REPRESENTATION(#42,#41);
#44=APPLICATION_CONTEXT('automotive design');
#45=APPLICATION_PROTOCOL_DEFINITION('International Standard','automotive_design',2001,#44);
#46=PRODUCT_CONTEXT('',#44,'mechanical');
#47=PRODUCT('presor_v3','presor_v3',$,(#46));
#48=PRODUCT_RELATED_PRODUCT_CATEGORY('part',$,(#47));
#49=PRODUCT_DEFINITION_FORMATION('',$,#47);
#50=PRODUCT_DEFINITION_CONTEXT('part definition',#44,'design');
#51=PRODUCT_DEFINITION('',$,#49,#50);
#57=(NAMED_UNIT(*)PLANE_ANGLE_UNIT()SI_UNIT($,.RADIAN.));
#58=DIMENSIONAL_EXPONENTS(0.0,0.0,0.0,0.0,0.0,0.0,0.0);
#59=PLANE_ANGLE_MEASURE_WITH_UNIT(PLANE_ANGLE_MEASURE(0.017453292500000),#57);
#63=(CONVERSION_BASED_UNIT('DEGREE',#59)NAMED_UNIT(#58)PLANE_ANGLE_UNIT());
#67=(NAMED_UNIT(*)SI_UNIT($,.STERADIAN.)SOLID_ANGLE_UNIT());
#71=(LENGTH_UNIT()NAMED_UNIT(*)SI_UNIT(.MILLI.,.METRE.));
#73=UNCERTAINTY_MEASURE_WITH_UNIT(LENGTH_MEASURE(0.010000000000000),#71,'DISTANCE_ACCURACY_VALUE','');
#75=(GEOMETRIC_REPRESENTATION_CONTEXT(3)GLOBAL_UNCERTAINTY_ASSIGNED_CONTEXT((#73))GLOBAL_UNIT_ASSIGNED_CONTEXT((#63,#67,#71))REPRESENTATION_CONTEXT('None','None'));
#76=AXIS2_PLACEMENT_3D('',#77,#78,#79);
#77=CARTESIAN_POINT('',(0.0,0.0,0.0));
#78=DIRECTION('',(0.0,0.0,1.0));
#79=DIRECTION('',(1.0,0.0,0.0));
#80=SHAPE_REPRESENTATION('',(#76),#75);
#81=PRODUCT_DEFINITION_SHAPE('','',#51);
#82=SHAPE_DEFINITION_REPRESENTATION(#81,#80);
#88=(NAMED_UNIT(*)PLANE_ANGLE_UNIT()SI_UNIT($,.RADIAN.));
#89=DIMENSIONAL_EXPONENTS(0.0,0.0,0.0,0.0,0.0,0.0,0.0);
#90=PLANE_ANGLE_MEASURE_WITH_UNIT(PLANE_ANGLE_MEASURE(0.017453292500000),#88);
#94=(CONVERSION_BASED_UNIT('DEGREE',#90)NAMED_UNIT(#89)PLANE_ANGLE_UNIT());
#98=(NAMED_UNIT(*)SI_UNIT($,.STERADIAN.)SOLID_ANGLE_UNIT());
#102=(LENGTH_UNIT()NAMED_UNIT(*)SI_UNIT(.MILLI.,.METRE.));
#104=UNCERTAINTY_MEASURE_WITH_UNIT(LENGTH_MEASURE(0.000001000000000),#102,'DISTANCE_ACCURACY_VALUE','');
#106=(GEOMETRIC_REPRESENTATION_CONTEXT(3)GLOBAL_UNCERTAINTY_ASSIGNED_CONTEXT((#104))GLOBAL_UNIT_ASSIGNED_CONTEXT((#94,#98,#102))REPRESENTATION_CONTEXT('','3D'));
#107=CARTESIAN_POINT('',(111.847735572469550,-1.874382E-015,10.0));
#108=DIRECTION('',(0.0,0.707106781186548,-0.707106781186548));
#109=DIRECTION('',(-1.0,0.0,0.0));
#110=AXIS2_PLACEMENT_3D('',#107,#108,#109);
#111=PLANE('',#110);
#112=CARTESIAN_POINT('',(101.847735572469560,-3.099028E-015,10.0));
#113=VERTEX_POINT('',#112);
#114=CARTESIAN_POINT('',(101.847735572469530,160.0,170.0));
#115=VERTEX_POINT('',#114);
#116=CARTESIAN_POINT('',(101.847735572469560,-2.917342E-015,10.0));
#117=DIRECTION('',(-1.884111E-016,0.707106781186548,0.707106781186548));
#118=VECTOR('',#117,226.274169979695240);
#119=LINE('',#116,#118);
#120=EDGE_CURVE('',#113,#115,#119,.T.);
#121=ORIENTED_EDGE('',*,*,#120,.F.);
#122=CARTESIAN_POINT('',(111.847735572469550,-1.874382E-015,10.0));
#123=VERTEX_POINT('',#122);
#124=CARTESIAN_POINT('',(111.847735572469550,-5.432861E-016,10.0));
#125=DIRECTION('',(-1.0,0.0,0.0));
#126=VECTOR('',#125,9.999999999999986);
#127=LINE('',#124,#126);
#128=EDGE_CURVE('',#123,#113,#127,.T.);
#129=ORIENTED_EDGE('',*,*,#128,.F.);
#130=CARTESIAN_POINT('',(111.847735572469550,160.0,170.0));
#131=VERTEX_POINT('',#130);
#132=CARTESIAN_POINT('',(111.847735572469550,160.0,170.000000000000030));
#133=DIRECTION('',(0.0,-0.707106781186547,-0.707106781186548));
#134=VECTOR('',#133,226.274169979695240);
#135=LINE('',#132,#134);
#136=EDGE_CURVE('',#131,#123,#135,.T.);
#137=ORIENTED_EDGE('',*,*,#136,.F.);
#138=CARTESIAN_POINT('',(101.847735572469530,160.0,170.0));
#139=DIRECTION('',(1.0,0.0,0.0));
#140=VECTOR('',#139,10.000000000000014);
#141=LINE('',#138,#140);
#142=EDGE_CURVE('',#115,#131,#141,.T.);
#143=ORIENTED_EDGE('',*,*,#142,.F.);
#144=EDGE_LOOP('',(#121,#129,#137,#143));
#145=FACE_OUTER_BOUND('',#144,.T.);
#146=ADVANCED_FACE('',(#145),#111,.F.);
#147=CARTESIAN_POINT('',(111.847735572469550,160.0,10.0));
#148=DIRECTION('',(1.0,0.0,0.0));
#149=DIRECTION('',(0.0,0.0,-1.0));
#150=AXIS2_PLACEMENT_3D('',#147,#148,#149);
#151=PLANE('',#150);
#152=ORIENTED_EDGE('',*,*,#136,.T.);
#153=CARTESIAN_POINT('',(111.847735572469550,160.0,10.0));
#154=VERTEX_POINT('',#153);
#155=CARTESIAN_POINT('',(111.847735572469530,160.0,10.0));
#156=DIRECTION('',(0.0,-1.0,0.0));
#157=VECTOR('',#156,160.0);
#158=LINE('',#155,#157);
#159=EDGE_CURVE('',#154,#123,#158,.T.);
#160=ORIENTED_EDGE('',*,*,#159,.F.);
#161=CARTESIAN_POINT('',(111.847735572469550,160.0,10.0));
#162=DIRECTION('',(0.0,0.0,1.0));
#163=VECTOR('',#162,160.0);
#164=LINE('',#161,#163);
#165=EDGE_CURVE('',#154,#131,#164,.T.);
#166=ORIENTED_EDGE('',*,*,#165,.T.);
#167=EDGE_LOOP('',(#152,#160,#166));
#168=FACE_OUTER_BOUND('',#167,.T.);
#169=ADVANCED_FACE('',(#168),#151,.T.);
#170=CARTESIAN_POINT('',(213.695471144939120,-4.962369E-017,0.0));
#171=DIRECTION('',(0.0,-1.0,0.0));
#172=DIRECTION('',(0.0,0.0,-1.0));
#173=AXIS2_PLACEMENT_3D('',#170,#171,#172);
#174=PLANE('',#173);
#175=ORIENTED_EDGE('',*,*,#128,.T.);
#176=CARTESIAN_POINT('',(11.425184053936883,-2.653120E-018,10.0));
#177=VERTEX_POINT('',#176);
#178=CARTESIAN_POINT('',(101.847735572469560,-2.365076E-017,10.0));
#179=DIRECTION('',(-1.0,0.0,0.0));
#180=VECTOR('',#179,90.422551518532671);
#181=LINE('',#178,#180);
#182=EDGE_CURVE('',#113,#177,#181,.T.);
#183=ORIENTED_EDGE('',*,*,#182,.T.);
#184=CARTESIAN_POINT('',(11.425184053936883,-2.653120E-018,0.0));
#185=VERTEX_POINT('',#184);
#186=CARTESIAN_POINT('',(11.425184053936883,0.0,0.0));
#187=DIRECTION('',(0.0,0.0,1.0));
#188=VECTOR('',#187,10.0);
#189=LINE('',#186,#188);
#190=EDGE_CURVE('',#185,#177,#189,.T.);
#191=ORIENTED_EDGE('',*,*,#190,.F.);
#192=CARTESIAN_POINT('',(202.270287091002220,-4.697057E-017,0.0));
#193=VERTEX_POINT('',#192);
#194=CARTESIAN_POINT('',(11.425184053936883,-2.653120E-018,0.0));
#195=DIRECTION('',(1.0,0.0,0.0));
#196=VECTOR('',#195,190.845103037065340);
#197=LINE('',#194,#196);
#198=EDGE_CURVE('',#185,#193,#197,.T.);
#199=ORIENTED_EDGE('',*,*,#198,.T.);
#200=CARTESIAN_POINT('',(202.270287091002220,-4.697057E-017,10.0));
#201=VERTEX_POINT('',#200);
#202=CARTESIAN_POINT('',(202.270287091002220,0.0,10.0));
#203=DIRECTION('',(0.0,0.0,-1.0));
#204=VECTOR('',#203,10.0);
#205=LINE('',#202,#204);
#206=EDGE_CURVE('',#201,#193,#205,.T.);
#207=ORIENTED_EDGE('',*,*,#206,.F.);
#208=CARTESIAN_POINT('',(202.270287091002220,-4.697057E-017,10.0));
#209=DIRECTION('',(-1.0,0.0,0.0));
#210=VECTOR('',#209,90.422551518532671);
#211=LINE('',#208,#210);
#212=EDGE_CURVE('',#201,#123,#211,.T.);
#213=ORIENTED_EDGE('',*,*,#212,.T.);
#214=EDGE_LOOP('',(#175,#183,#191,#199,#207,#213));
#215=FACE_OUTER_BOUND('',#214,.T.);
#216=ADVANCED_FACE('',(#215),#174,.T.);
#217=CARTESIAN_POINT('',(101.847735572469560,-3.099028E-015,10.0));
#218=DIRECTION('',(-1.0,0.0,0.0));
#219=DIRECTION('',(0.0,0.0,1.0));
#220=AXIS2_PLACEMENT_3D('',#217,#218,#219);
#221=PLANE('',#220);
#222=ORIENTED_EDGE('',*,*,#120,.T.);
#223=CARTESIAN_POINT('',(101.847735572469530,160.0,10.0));
#224=VERTEX_POINT('',#223);
#225=CARTESIAN_POINT('',(101.847735572469530,160.0,10.0));
#226=DIRECTION('',(0.0,0.0,1.0));
#227=VECTOR('',#226,160.0);
#228=LINE('',#225,#227);
#229=EDGE_CURVE('',#224,#115,#228,.T.);
#230=ORIENTED_EDGE('',*,*,#229,.F.);
#231=CARTESIAN_POINT('',(101.847735572469570,-7.105427E-015,10.0));
#232=DIRECTION('',(0.0,1.0,0.0));
#233=VECTOR('',#232,160.0);
#234=LINE('',#231,#233);
#235=EDGE_CURVE('',#113,#224,#234,.T.);
#236=ORIENTED_EDGE('',*,*,#235,.F.);
#237=EDGE_LOOP('',(#222,#230,#236));
#238=FACE_OUTER_BOUND('',#237,.T.);
#239=ADVANCED_FACE('',(#238),#221,.T.);
#240=CARTESIAN_POINT('',(101.847735572469530,160.0,10.0));
#241=DIRECTION('',(0.0,1.0,0.0));
#242=DIRECTION('',(0.0,0.0,1.0));
#243=AXIS2_PLACEMENT_3D('',#240,#241,#242);
#244=PLANE('',#243);
#245=ORIENTED_EDGE('',*,*,#142,.T.);
#246=ORIENTED_EDGE('',*,*,#165,.F.);
#247=CARTESIAN_POINT('',(101.847735572469530,160.0,10.0));
#248=DIRECTION('',(1.0,0.0,0.0));
#249=VECTOR('',#248,10.000000000000014);
#250=LINE('',#247,#249);
#251=EDGE_CURVE('',#224,#154,#250,.T.);
#252=ORIENTED_EDGE('',*,*,#251,.F.);
#253=ORIENTED_EDGE('',*,*,#229,.T.);
#254=EDGE_LOOP('',(#245,#246,#252,#253));
#255=FACE_OUTER_BOUND('',#254,.T.);
#256=ADVANCED_FACE('',(#255),#244,.T.);
#257=CARTESIAN_POINT('',(106.847735572469530,79.421420089332187,10.0));
#258=DIRECTION('',(0.0,0.0,1.0));
#259=DIRECTION('',(1.0,0.0,0.0));
#260=AXIS2_PLACEMENT_3D('',#257,#258,#259);
#261=PLANE('',#260);
#262=ORIENTED_EDGE('',*,*,#235,.T.);
#263=ORIENTED_EDGE('',*,*,#251,.T.);
#264=ORIENTED_EDGE('',*,*,#159,.T.);
#265=ORIENTED_EDGE('',*,*,#212,.F.);
#266=CARTESIAN_POINT('',(209.787828057289460,10.736161146605349,10.0));
#267=VERTEX_POINT('',#266);
#268=CARTESIAN_POINT('',(202.270287091002220,8.000000000000007,10.0));
#269=DIRECTION('',(0.0,0.0,-1.000000000000000));
#270=DIRECTION('',(0.819152044288990,-0.573576436351049,0.0));
#271=AXIS2_PLACEMENT_3D('',#268,#269,#270);
#272=CIRCLE('',#271,8.0);
#273=EDGE_CURVE('',#267,#201,#272,.T.);
#274=ORIENTED_EDGE('',*,*,#273,.F.);
#275=CARTESIAN_POINT('',(142.817304952308290,194.736161146605330,10.0));
#276=VERTEX_POINT('',#275);
#277=CARTESIAN_POINT('',(142.817304952308290,194.736161146605350,10.0));
#278=DIRECTION('',(0.342020143325668,-0.939692620785908,0.0));
#279=VECTOR('',#278,195.808710135567820);
#280=LINE('',#277,#279);
#281=EDGE_CURVE('',#276,#267,#280,.T.);
#282=ORIENTED_EDGE('',*,*,#281,.F.);
#283=CARTESIAN_POINT('',(135.299763986021020,200.0,10.0));
#284=VERTEX_POINT('',#283);
#285=CARTESIAN_POINT('',(135.299763986021020,192.0,10.0));
#286=DIRECTION('',(0.0,0.0,-1.000000000000000));
#287=DIRECTION('',(0.573576436351047,0.819152044288991,0.0));
#288=AXIS2_PLACEMENT_3D('',#285,#286,#287);
#289=CIRCLE('',#288,8.0);
#290=EDGE_CURVE('',#284,#276,#289,.T.);
#291=ORIENTED_EDGE('',*,*,#290,.F.);
#292=CARTESIAN_POINT('',(78.395707158918043,200.0,10.0));
#293=VERTEX_POINT('',#292);
#294=CARTESIAN_POINT('',(78.395707158918043,200.0,10.0));
#295=DIRECTION('',(1.0,0.0,0.0));
#296=VECTOR('',#295,56.904056827102977);
#297=LINE('',#294,#296);
#298=EDGE_CURVE('',#293,#284,#297,.T.);
#299=ORIENTED_EDGE('',*,*,#298,.F.);
#300=CARTESIAN_POINT('',(70.878166192630772,194.736161146605330,10.0));
#301=VERTEX_POINT('',#300);
#302=CARTESIAN_POINT('',(78.395707158918043,192.0,10.0));
#303=DIRECTION('',(0.0,0.0,-1.0));
#304=DIRECTION('',(-0.573576436351048,0.819152044288990,0.0));
#305=AXIS2_PLACEMENT_3D('',#302,#303,#304);
#306=CIRCLE('',#305,8.0);
#307=EDGE_CURVE('',#301,#293,#306,.T.);
#308=ORIENTED_EDGE('',*,*,#307,.F.);
#309=CARTESIAN_POINT('',(3.907643087649637,10.736161146605312,10.0));
#310=VERTEX_POINT('',#309);
#311=CARTESIAN_POINT('',(3.907643087649632,10.736161146605298,10.0));
#312=DIRECTION('',(0.342020143325668,0.939692620785909,0.0));
#313=VECTOR('',#312,195.808710135567820);
#314=LINE('',#311,#313);
#315=EDGE_CURVE('',#310,#301,#314,.T.);
#316=ORIENTED_EDGE('',*,*,#315,.F.);
#317=CARTESIAN_POINT('',(11.425184053936883,7.999999999999998,10.0));
#318=DIRECTION('',(0.0,0.0,-1.000000000000000));
#319=DIRECTION('',(-0.819152044288991,-0.573576436351048,0.0));
#320=AXIS2_PLACEMENT_3D('',#317,#318,#319);
#321=CIRCLE('',#320,7.999999999999999);
#322=EDGE_CURVE('',#177,#310,#321,.T.);
#323=ORIENTED_EDGE('',*,*,#322,.F.);
#324=ORIENTED_EDGE('',*,*,#182,.F.);
#325=EDGE_LOOP('',(#262,#263,#264,#265,#274,#282,#291,#299,#308,#316,#323,#324));
#326=FACE_OUTER_BOUND('',#325,.T.);
#327=CARTESIAN_POINT('',(40.842364820166317,40.0,10.0));
#328=VERTEX_POINT('',#327);
#329=CARTESIAN_POINT('',(35.842364820166310,40.0,10.0));
#330=DIRECTION('',(0.0,0.0,-1.0));
#331=DIRECTION('',(-1.0,0.0,0.0));
#332=AXIS2_PLACEMENT_3D('',#329,#330,#331);
#333=CIRCLE('',#332,5.0);
#334=EDGE_CURVE('',#328,#328,#333,.T.);
#335=ORIENTED_EDGE('',*,*,#334,.T.);
#336=EDGE_LOOP('',(#335));
#337=FACE_BOUND('',#336,.T.);
#338=CARTESIAN_POINT('',(69.959983561462451,120.0,10.0));
#339=VERTEX_POINT('',#338);
#340=CARTESIAN_POINT('',(64.959983561462451,120.0,10.0));
#341=DIRECTION('',(0.0,0.0,-1.0));
#342=DIRECTION('',(-1.0,0.0,0.0));
#343=AXIS2_PLACEMENT_3D('',#340,#341,#342);
#344=CIRCLE('',#343,5.0);
#345=EDGE_CURVE('',#339,#339,#344,.T.);
#346=ORIENTED_EDGE('',*,*,#345,.T.);
#347=EDGE_LOOP('',(#346));
#348=FACE_BOUND('',#347,.T.);
#349=CARTESIAN_POINT('',(153.735487583476580,120.0,10.0));
#350=VERTEX_POINT('',#349);
#351=CARTESIAN_POINT('',(148.735487583476580,120.0,10.0));
#352=DIRECTION('',(0.0,0.0,-1.0));
#353=DIRECTION('',(-1.0,0.0,0.0));
#354=AXIS2_PLACEMENT_3D('',#351,#352,#353);
#355=CIRCLE('',#354,5.0);
#356=EDGE_CURVE('',#350,#350,#355,.T.);
#357=ORIENTED_EDGE('',*,*,#356,.T.);
#358=EDGE_LOOP('',(#357));
#359=FACE_BOUND('',#358,.T.);
#360=CARTESIAN_POINT('',(182.853106324772770,40.0,10.0));
#361=VERTEX_POINT('',#360);
#362=CARTESIAN_POINT('',(177.853106324772770,40.0,10.0));
#363=DIRECTION('',(0.0,0.0,-1.0));
#364=DIRECTION('',(-1.0,0.0,0.0));
#365=AXIS2_PLACEMENT_3D('',#362,#363,#364);
#366=CIRCLE('',#365,5.0);
#367=EDGE_CURVE('',#361,#361,#366,.T.);
#368=ORIENTED_EDGE('',*,*,#367,.T.);
#369=EDGE_LOOP('',(#368));
#370=FACE_BOUND('',#369,.T.);
#371=ADVANCED_FACE('',(#326,#337,#348,#359,#370),#261,.T.);
#372=CARTESIAN_POINT('',(202.270287091002220,8.000000000000007,0.0));
#373=DIRECTION('',(0.0,0.0,1.0));
#374=DIRECTION('',(0.819152044288990,-0.573576436351049,0.0));
#375=AXIS2_PLACEMENT_3D('',#372,#373,#374);
#376=CYLINDRICAL_SURFACE('',#375,8.0);
#377=ORIENTED_EDGE('',*,*,#273,.T.);
#378=ORIENTED_EDGE('',*,*,#206,.T.);
#379=CARTESIAN_POINT('',(209.787828057289460,10.736161146605349,0.0));
#380=VERTEX_POINT('',#379);
#381=CARTESIAN_POINT('',(202.270287091002220,8.000000000000007,0.0));
#382=DIRECTION('',(0.0,0.0,1.000000000000000));
#383=DIRECTION('',(0.819152044288990,-0.573576436351049,0.0));
#384=AXIS2_PLACEMENT_3D('',#381,#382,#383);
#385=CIRCLE('',#384,8.0);
#386=EDGE_CURVE('',#193,#380,#385,.T.);
#387=ORIENTED_EDGE('',*,*,#386,.T.);
#388=CARTESIAN_POINT('',(209.787828057289460,10.736161146605351,0.0));
#389=DIRECTION('',(0.0,0.0,1.0));
#390=VECTOR('',#389,10.0);
#391=LINE('',#388,#390);
#392=EDGE_CURVE('',#380,#267,#391,.T.);
#393=ORIENTED_EDGE('',*,*,#392,.T.);
#394=EDGE_LOOP('',(#377,#378,#387,#393));
#395=FACE_OUTER_BOUND('',#394,.T.);
#396=ADVANCED_FACE('',(#395),#376,.T.);
#397=CARTESIAN_POINT('',(135.299763986021020,192.0,0.0));
#398=DIRECTION('',(0.0,0.0,1.0));
#399=DIRECTION('',(0.573576436351047,0.819152044288991,0.0));
#400=AXIS2_PLACEMENT_3D('',#397,#398,#399);
#401=CYLINDRICAL_SURFACE('',#400,8.0);
#402=ORIENTED_EDGE('',*,*,#290,.T.);
#403=CARTESIAN_POINT('',(142.817304952308290,194.736161146605330,0.0));
#404=VERTEX_POINT('',#403);
#405=CARTESIAN_POINT('',(142.817304952308290,194.736161146605330,10.0));
#406=DIRECTION('',(0.0,0.0,-1.0));
#407=VECTOR('',#406,10.0);
#408=LINE('',#405,#407);
#409=EDGE_CURVE('',#276,#404,#408,.T.);
#410=ORIENTED_EDGE('',*,*,#409,.T.);
#411=CARTESIAN_POINT('',(135.299763986021020,200.0,0.0));
#412=VERTEX_POINT('',#411);
#413=CARTESIAN_POINT('',(135.299763986021020,192.0,0.0));
#414=DIRECTION('',(0.0,0.0,1.000000000000000));
#415=DIRECTION('',(0.573576436351047,0.819152044288991,0.0));
#416=AXIS2_PLACEMENT_3D('',#413,#414,#415);
#417=CIRCLE('',#416,8.0);
#418=EDGE_CURVE('',#404,#412,#417,.T.);
#419=ORIENTED_EDGE('',*,*,#418,.T.);
#420=CARTESIAN_POINT('',(135.299763986021020,200.0,0.0));
#421=DIRECTION('',(0.0,0.0,1.0));
#422=VECTOR('',#421,10.0);
#423=LINE('',#420,#422);
#424=EDGE_CURVE('',#412,#284,#423,.T.);
#425=ORIENTED_EDGE('',*,*,#424,.T.);
#426=EDGE_LOOP('',(#402,#410,#419,#425));
#427=FACE_OUTER_BOUND('',#426,.T.);
#428=ADVANCED_FACE('',(#427),#401,.T.);
#429=CARTESIAN_POINT('',(106.847735572469530,200.0,0.0));
#430=DIRECTION('',(0.0,1.0,0.0));
#431=DIRECTION('',(0.0,0.0,1.0));
#432=AXIS2_PLACEMENT_3D('',#429,#430,#431);
#433=PLANE('',#432);
#434=ORIENTED_EDGE('',*,*,#424,.F.);
#435=CARTESIAN_POINT('',(78.395707158918043,200.0,0.0));
#436=VERTEX_POINT('',#435);
#437=CARTESIAN_POINT('',(135.299763986021020,200.0,0.0));
#438=DIRECTION('',(-1.0,0.0,0.0));
#439=VECTOR('',#438,56.904056827102977);
#440=LINE('',#437,#439);
#441=EDGE_CURVE('',#412,#436,#440,.T.);
#442=ORIENTED_EDGE('',*,*,#441,.T.);
#443=CARTESIAN_POINT('',(78.395707158918043,200.0,10.0));
#444=DIRECTION('',(0.0,0.0,-1.0));
#445=VECTOR('',#444,10.0);
#446=LINE('',#443,#445);
#447=EDGE_CURVE('',#293,#436,#446,.T.);
#448=ORIENTED_EDGE('',*,*,#447,.F.);
#449=ORIENTED_EDGE('',*,*,#298,.T.);
#450=EDGE_LOOP('',(#434,#442,#448,#449));
#451=FACE_OUTER_BOUND('',#450,.T.);
#452=ADVANCED_FACE('',(#451),#433,.T.);
#453=CARTESIAN_POINT('',(78.395707158918043,192.0,0.0));
#454=DIRECTION('',(0.0,0.0,1.0));
#455=DIRECTION('',(-0.573576436351048,0.819152044288990,0.0));
#456=AXIS2_PLACEMENT_3D('',#453,#454,#455);
#457=CYLINDRICAL_SURFACE('',#456,8.0);
#458=ORIENTED_EDGE('',*,*,#307,.T.);
#459=ORIENTED_EDGE('',*,*,#447,.T.);
#460=CARTESIAN_POINT('',(70.878166192630772,194.736161146605330,0.0));
#461=VERTEX_POINT('',#460);
#462=CARTESIAN_POINT('',(78.395707158918043,192.0,0.0));
#463=DIRECTION('',(0.0,0.0,1.0));
#464=DIRECTION('',(-0.573576436351048,0.819152044288990,0.0));
#465=AXIS2_PLACEMENT_3D('',#462,#463,#464);
#466=CIRCLE('',#465,8.0);
#467=EDGE_CURVE('',#436,#461,#466,.T.);
#468=ORIENTED_EDGE('',*,*,#467,.T.);
#469=CARTESIAN_POINT('',(70.878166192630772,194.736161146605330,0.0));
#470=DIRECTION('',(0.0,0.0,1.0));
#471=VECTOR('',#470,10.0);
#472=LINE('',#469,#471);
#473=EDGE_CURVE('',#461,#301,#472,.T.);
#474=ORIENTED_EDGE('',*,*,#473,.T.);
#475=EDGE_LOOP('',(#458,#459,#468,#474));
#476=FACE_OUTER_BOUND('',#475,.T.);
#477=ADVANCED_FACE('',(#476),#457,.T.);
#478=CARTESIAN_POINT('',(11.425184053936883,7.999999999999998,0.0));
#479=DIRECTION('',(0.0,0.0,1.0));
#480=DIRECTION('',(-0.819152044288991,-0.573576436351048,0.0));
#481=AXIS2_PLACEMENT_3D('',#478,#479,#480);
#482=CYLINDRICAL_SURFACE('',#481,7.999999999999999);
#483=ORIENTED_EDGE('',*,*,#322,.T.);
#484=CARTESIAN_POINT('',(3.907643087649637,10.736161146605312,0.0));
#485=VERTEX_POINT('',#484);
#486=CARTESIAN_POINT('',(3.907643087649635,10.736161146605337,10.0));
#487=DIRECTION('',(0.0,0.0,-1.0));
#488=VECTOR('',#487,10.0);
#489=LINE('',#486,#488);
#490=EDGE_CURVE('',#310,#485,#489,.T.);
#491=ORIENTED_EDGE('',*,*,#490,.T.);
#492=CARTESIAN_POINT('',(11.425184053936883,7.999999999999998,0.0));
#493=DIRECTION('',(0.0,0.0,1.000000000000000));
#494=DIRECTION('',(-0.819152044288991,-0.573576436351048,0.0));
#495=AXIS2_PLACEMENT_3D('',#492,#493,#494);
#496=CIRCLE('',#495,7.999999999999999);
#497=EDGE_CURVE('',#485,#185,#496,.T.);
#498=ORIENTED_EDGE('',*,*,#497,.T.);
#499=ORIENTED_EDGE('',*,*,#190,.T.);
#500=EDGE_LOOP('',(#483,#491,#498,#499));
#501=FACE_OUTER_BOUND('',#500,.T.);
#502=ADVANCED_FACE('',(#501),#482,.T.);
#503=CARTESIAN_POINT('',(177.853106324772770,40.0,0.0));
#504=DIRECTION('',(0.0,0.0,1.0));
#505=DIRECTION('',(-1.0,0.0,0.0));
#506=AXIS2_PLACEMENT_3D('',#503,#504,#505);
#507=CYLINDRICAL_SURFACE('',#506,5.0);
#508=ORIENTED_EDGE('',*,*,#367,.F.);
#509=EDGE_LOOP('',(#508));
#510=FACE_OUTER_BOUND('',#509,.T.);
#511=CARTESIAN_POINT('',(182.853106324772770,40.0,0.0));
#512=VERTEX_POINT('',#511);
#513=CARTESIAN_POINT('',(177.853106324772770,40.0,0.0));
#514=DIRECTION('',(0.0,0.0,1.0));
#515=DIRECTION('',(-1.0,0.0,0.0));
#516=AXIS2_PLACEMENT_3D('',#513,#514,#515);
#517=CIRCLE('',#516,5.0);
#518=EDGE_CURVE('',#512,#512,#517,.T.);
#519=ORIENTED_EDGE('',*,*,#518,.F.);
#520=EDGE_LOOP('',(#519));
#521=FACE_BOUND('',#520,.T.);
#522=ADVANCED_FACE('',(#510,#521),#507,.F.);
#523=CARTESIAN_POINT('',(148.735487583476580,120.0,0.0));
#524=DIRECTION('',(0.0,0.0,1.0));
#525=DIRECTION('',(-1.0,0.0,0.0));
#526=AXIS2_PLACEMENT_3D('',#523,#524,#525);
#527=CYLINDRICAL_SURFACE('',#526,5.0);
#528=ORIENTED_EDGE('',*,*,#356,.F.);
#529=EDGE_LOOP('',(#528));
#530=FACE_OUTER_BOUND('',#529,.T.);
#531=CARTESIAN_POINT('',(153.735487583476580,120.0,0.0));
#532=VERTEX_POINT('',#531);
#533=CARTESIAN_POINT('',(148.735487583476580,120.0,0.0));
#534=DIRECTION('',(0.0,0.0,1.0));
#535=DIRECTION('',(-1.0,0.0,0.0));
#536=AXIS2_PLACEMENT_3D('',#533,#534,#535);
#537=CIRCLE('',#536,5.0);
#538=EDGE_CURVE('',#532,#532,#537,.T.);
#539=ORIENTED_EDGE('',*,*,#538,.F.);
#540=EDGE_LOOP('',(#539));
#541=FACE_BOUND('',#540,.T.);
#542=ADVANCED_FACE('',(#530,#541),#527,.F.);
#543=CARTESIAN_POINT('',(64.959983561462451,120.0,0.0));
#544=DIRECTION('',(0.0,0.0,1.0));
#545=DIRECTION('',(-1.0,0.0,0.0));
#546=AXIS2_PLACEMENT_3D('',#543,#544,#545);
#547=CYLINDRICAL_SURFACE('',#546,5.0);
#548=ORIENTED_EDGE('',*,*,#345,.F.);
#549=EDGE_LOOP('',(#548));
#550=FACE_OUTER_BOUND('',#549,.T.);
#551=CARTESIAN_POINT('',(69.959983561462451,120.0,0.0));
#552=VERTEX_POINT('',#551);
#553=CARTESIAN_POINT('',(64.959983561462451,120.0,0.0));
#554=DIRECTION('',(0.0,0.0,1.0));
#555=DIRECTION('',(-1.0,0.0,0.0));
#556=AXIS2_PLACEMENT_3D('',#553,#554,#555);
#557=CIRCLE('',#556,5.0);
#558=EDGE_CURVE('',#552,#552,#557,.T.);
#559=ORIENTED_EDGE('',*,*,#558,.F.);
#560=EDGE_LOOP('',(#559));
#561=FACE_BOUND('',#560,.T.);
#562=ADVANCED_FACE('',(#550,#561),#547,.F.);
#563=CARTESIAN_POINT('',(35.842364820166310,40.0,0.0));
#564=DIRECTION('',(0.0,0.0,1.0));
#565=DIRECTION('',(-1.0,0.0,0.0));
#566=AXIS2_PLACEMENT_3D('',#563,#564,#565);
#567=CYLINDRICAL_SURFACE('',#566,5.0);
#568=ORIENTED_EDGE('',*,*,#334,.F.);
#569=EDGE_LOOP('',(#568));
#570=FACE_OUTER_BOUND('',#569,.T.);
#571=CARTESIAN_POINT('',(40.842364820166317,40.0,0.0));
#572=VERTEX_POINT('',#571);
#573=CARTESIAN_POINT('',(35.842364820166310,40.0,0.0));
#574=DIRECTION('',(0.0,0.0,1.0));
#575=DIRECTION('',(-1.0,0.0,0.0));
#576=AXIS2_PLACEMENT_3D('',#573,#574,#575);
#577=CIRCLE('',#576,5.0);
#578=EDGE_CURVE('',#572,#572,#577,.T.);
#579=ORIENTED_EDGE('',*,*,#578,.F.);
#580=EDGE_LOOP('',(#579));
#581=FACE_BOUND('',#580,.T.);
#582=ADVANCED_FACE('',(#570,#581),#567,.F.);
#583=CARTESIAN_POINT('',(0.0,0.0,0.0));
#584=DIRECTION('',(-0.939692620785909,0.342020143325668,0.0));
#585=DIRECTION('',(0.0,0.0,1.0));
#586=AXIS2_PLACEMENT_3D('',#583,#584,#585);
#587=PLANE('',#586);
#588=ORIENTED_EDGE('',*,*,#473,.F.);
#589=CARTESIAN_POINT('',(70.878166192630772,194.736161146605330,0.0));
#590=DIRECTION('',(-0.342020143325668,-0.939692620785909,0.0));
#591=VECTOR('',#590,195.808710135567820);
#592=LINE('',#589,#591);
#593=EDGE_CURVE('',#461,#485,#592,.T.);
#594=ORIENTED_EDGE('',*,*,#593,.T.);
#595=ORIENTED_EDGE('',*,*,#490,.F.);
#596=ORIENTED_EDGE('',*,*,#315,.T.);
#597=EDGE_LOOP('',(#588,#594,#595,#596));
#598=FACE_OUTER_BOUND('',#597,.T.);
#599=ADVANCED_FACE('',(#598),#587,.T.);
#600=CARTESIAN_POINT('',(140.901424291698700,200.0,0.0));
#601=DIRECTION('',(0.939692620785909,0.342020143325669,0.0));
#602=DIRECTION('',(0.0,0.0,-1.0));
#603=AXIS2_PLACEMENT_3D('',#600,#601,#602);
#604=PLANE('',#603);
#605=ORIENTED_EDGE('',*,*,#392,.F.);
#606=CARTESIAN_POINT('',(209.787828057289460,10.736161146605349,0.0));
#607=DIRECTION('',(-0.342020143325668,0.939692620785908,0.0));
#608=VECTOR('',#607,195.808710135567820);
#609=LINE('',#606,#608);
#610=EDGE_CURVE('',#380,#404,#609,.T.);
#611=ORIENTED_EDGE('',*,*,#610,.T.);
#612=ORIENTED_EDGE('',*,*,#409,.F.);
#613=ORIENTED_EDGE('',*,*,#281,.T.);
#614=EDGE_LOOP('',(#605,#611,#612,#613));
#615=FACE_OUTER_BOUND('',#614,.T.);
#616=ADVANCED_FACE('',(#615),#604,.T.);
#617=CARTESIAN_POINT('',(106.847735572469530,79.421420089332187,0.0));
#618=DIRECTION('',(0.0,0.0,1.0));
#619=DIRECTION('',(1.0,0.0,0.0));
#620=AXIS2_PLACEMENT_3D('',#617,#618,#619);
#621=PLANE('',#620);
#622=ORIENTED_EDGE('',*,*,#386,.F.);
#623=ORIENTED_EDGE('',*,*,#198,.F.);
#624=ORIENTED_EDGE('',*,*,#497,.F.);
#625=ORIENTED_EDGE('',*,*,#593,.F.);
#626=ORIENTED_EDGE('',*,*,#467,.F.);
#627=ORIENTED_EDGE('',*,*,#441,.F.);
#628=ORIENTED_EDGE('',*,*,#418,.F.);
#629=ORIENTED_EDGE('',*,*,#610,.F.);
#630=EDGE_LOOP('',(#622,#623,#624,#625,#626,#627,#628,#629));
#631=FACE_OUTER_BOUND('',#630,.T.);
#632=ORIENTED_EDGE('',*,*,#518,.T.);
#633=EDGE_LOOP('',(#632));
#634=FACE_BOUND('',#633,.T.);
#635=ORIENTED_EDGE('',*,*,#538,.T.);
#636=EDGE_LOOP('',(#635));
#637=FACE_BOUND('',#636,.T.);
#638=ORIENTED_EDGE('',*,*,#558,.T.);
#639=EDGE_LOOP('',(#638));
#640=FACE_BOUND('',#639,.T.);
#641=ORIENTED_EDGE('',*,*,#578,.T.);
#642=EDGE_LOOP('',(#641));
#643=FACE_BOUND('',#642,.T.);
#644=ADVANCED_FACE('',(#631,#634,#637,#640,#643),#621,.F.);
#645=CLOSED_SHELL('',(#146,#169,#216,#239,#256,#371,#396,#428,#452,#477,#502,#522,#542,#562,#582,#599,#616,#644));
#646=MANIFOLD_SOLID_BREP('S\S\slido1',#645);
#647=COLOUR_RGB('Por defecto',0.752941012382507,0.752941012382507,0.752941012382507);
#648=FILL_AREA_STYLE_COLOUR('Por defecto',#647);
#649=FILL_AREA_STYLE('Por defecto',(#648));
#650=SURFACE_STYLE_FILL_AREA(#649);
#651=SURFACE_SIDE_STYLE('Por defecto',(#650));
#652=SURFACE_STYLE_USAGE(.BOTH.,#651);
#653=PRESENTATION_STYLE_ASSIGNMENT((#652));
#654=STYLED_ITEM('',(#653),#646);
#655=MECHANICAL_DESIGN_GEOMETRIC_PRESENTATION_REPRESENTATION('',(#654,#1299),#36);
#656=ADVANCED_BREP_SHAPE_REPRESENTATION('ABSR',(#646),#75);
#657=SHAPE_REPRESENTATION_RELATIONSHIP('SRR','None',#656,#80);
#658=AXIS2_PLACEMENT_3D('',#659,#660,#661);
#659=CARTESIAN_POINT('',(0.0,0.0,0.0));
#660=DIRECTION('',(0.0,0.0,1.0));
#661=DIRECTION('',(1.0,0.0,0.0));
#662=NEXT_ASSEMBLY_USAGE_OCCURRENCE('presor_v3:1','presor_v3:1','presor_v3:1',#12,#51,'presor_v3:1');
#663=PRODUCT_DEFINITION_SHAPE('presor_v3:1','presor_v3:1',#662);
#664=ITEM_DEFINED_TRANSFORMATION('presor_v3:1','presor_v3:1',#76,#658);
#668=(REPRESENTATION_RELATIONSHIP('presor_v3:1','presor_v3:1',#80,#41)REPRESENTATION_RELATIONSHIP_WITH_TRANSFORMATION(#664)SHAPE_REPRESENTATION_RELATIONSHIP());
#669=CONTEXT_DEPENDENT_SHAPE_REPRESENTATION(#668,#663);
#670=APPLICATION_CONTEXT('automotive design');
#671=APPLICATION_PROTOCOL_DEFINITION('International Standard','automotive_design',2001,#670);
#672=PRODUCT_CONTEXT('',#670,'mechanical');
#673=PRODUCT('Travesa\S\qo','Travesa\S\qo',$,(#672));
#674=PRODUCT_RELATED_PRODUCT_CATEGORY('part',$,(#673));
#675=PRODUCT_DEFINITION_FORMATION('',$,#673);
#676=PRODUCT_DEFINITION_CONTEXT('part definition',#670,'design');
#677=PRODUCT_DEFINITION('',$,#675,#676);
#683=(NAMED_UNIT(*)PLANE_ANGLE_UNIT()SI_UNIT($,.RADIAN.));
#684=DIMENSIONAL_EXPONENTS(0.0,0.0,0.0,0.0,0.0,0.0,0.0);
#685=PLANE_ANGLE_MEASURE_WITH_UNIT(PLANE_ANGLE_MEASURE(0.017453292500000),#683);
#689=(CONVERSION_BASED_UNIT('DEGREE',#685)NAMED_UNIT(#684)PLANE_ANGLE_UNIT());
#693=(NAMED_UNIT(*)SI_UNIT($,.STERADIAN.)SOLID_ANGLE_UNIT());
#697=(LENGTH_UNIT()NAMED_UNIT(*)SI_UNIT(.MILLI.,.METRE.));
#699=UNCERTAINTY_MEASURE_WITH_UNIT(LENGTH_MEASURE(0.010000000000000),#697,'DISTANCE_ACCURACY_VALUE','');
#701=(GEOMETRIC_REPRESENTATION_CONTEXT(3)GLOBAL_UNCERTAINTY_ASSIGNED_CONTEXT((#699))GLOBAL_UNIT_ASSIGNED_CONTEXT((#689,#693,#697))REPRESENTATION_CONTEXT('None','None'));
#702=AXIS2_PLACEMENT_3D('',#703,#704,#705);
#703=CARTESIAN_POINT('',(0.0,0.0,0.0));
#704=DIRECTION('',(0.0,0.0,1.0));
#705=DIRECTION('',(1.0,0.0,0.0));
#706=SHAPE_REPRESENTATION('',(#702),#701);
#707=PRODUCT_DEFINITION_SHAPE('','',#677);
#708=SHAPE_DEFINITION_REPRESENTATION(#707,#706);
#714=(NAMED_UNIT(*)PLANE_ANGLE_UNIT()SI_UNIT($,.RADIAN.));
#715=DIMENSIONAL_EXPONENTS(0.0,0.0,0.0,0.0,0.0,0.0,0.0);
#716=PLANE_ANGLE_MEASURE_WITH_UNIT(PLANE_ANGLE_MEASURE(0.017453292500000),#714);
#720=(CONVERSION_BASED_UNIT('DEGREE',#716)NAMED_UNIT(#715)PLANE_ANGLE_UNIT());
#724=(NAMED_UNIT(*)SI_UNIT($,.STERADIAN.)SOLID_ANGLE_UNIT());
#728=(LENGTH_UNIT()NAMED_UNIT(*)SI_UNIT(.MILLI.,.METRE.));
#730=UNCERTAINTY_MEASURE_WITH_UNIT(LENGTH_MEASURE(0.000001000000000),#728,'DISTANCE_ACCURACY_VALUE','');
#732=(GEOMETRIC_REPRESENTATION_CONTEXT(3)GLOBAL_UNCERTAINTY_ASSIGNED_CONTEXT((#730))GLOBAL_UNIT_ASSIGNED_CONTEXT((#720,#724,#728))REPRESENTATION_CONTEXT('','3D'));
#733=CARTESIAN_POINT('',(-38.0,1.999999999999995,0.0));
#734=DIRECTION('',(0.0,0.0,1.0));
#735=DIRECTION('',(-0.707106781186548,-0.707106781186547,0.0));
#736=AXIS2_PLACEMENT_3D('',#733,#734,#735);
#737=CYLINDRICAL_SURFACE('',#736,2.0);
#738=CARTESIAN_POINT('',(-38.0,-4.746203E-015,1500.0));
#739=VERTEX_POINT('',#738);
#740=CARTESIAN_POINT('',(-40.0,1.999999999999995,1500.0));
#741=VERTEX_POINT('',#740);
#742=CARTESIAN_POINT('',(-38.0,1.999999999999995,1500.0));
#743=DIRECTION('',(0.0,0.0,-1.0));
#744=DIRECTION('',(-0.707106781186548,-0.707106781186547,0.0));
#745=AXIS2_PLACEMENT_3D('',#742,#743,#744);
#746=CIRCLE('',#745,2.0);
#747=EDGE_CURVE('',#739,#741,#746,.T.);
#748=ORIENTED_EDGE('',*,*,#747,.T.);
#749=CARTESIAN_POINT('',(-40.0,1.999999999999995,0.0));
#750=VERTEX_POINT('',#749);
#751=CARTESIAN_POINT('',(-40.0,1.999999999999995,1500.0));
#752=DIRECTION('',(0.0,0.0,-1.0));
#753=VECTOR('',#752,1500.0);
#754=LINE('',#751,#753);
#755=EDGE_CURVE('',#741,#750,#754,.T.);
#756=ORIENTED_EDGE('',*,*,#755,.T.);
#757=CARTESIAN_POINT('',(-38.0,-4.746203E-015,0.0));
#758=VERTEX_POINT('',#757);
#759=CARTESIAN_POINT('',(-38.0,1.999999999999995,0.0));
#760=DIRECTION('',(0.0,0.0,1.0));
#761=DIRECTION('',(-0.707106781186548,-0.707106781186547,0.0));
#762=AXIS2_PLACEMENT_3D('',#759,#760,#761);
#763=CIRCLE('',#762,2.0);
#764=EDGE_CURVE('',#750,#758,#763,.T.);
#765=ORIENTED_EDGE('',*,*,#764,.T.);
#766=CARTESIAN_POINT('',(-38.0,-4.718448E-015,0.0));
#767=DIRECTION('',(0.0,0.0,1.0));
#768=VECTOR('',#767,1500.0);
#769=LINE('',#766,#768);
#770=EDGE_CURVE('',#758,#739,#769,.T.);
#771=ORIENTED_EDGE('',*,*,#770,.T.);
#772=EDGE_LOOP('',(#748,#756,#765,#771));
#773=FACE_OUTER_BOUND('',#772,.T.);
#774=ADVANCED_FACE('',(#773),#737,.T.);
#775=CARTESIAN_POINT('',(0.0,0.0,0.0));
#776=DIRECTION('',(0.0,-1.0,0.0));
#777=DIRECTION('',(0.0,0.0,-1.0));
#778=AXIS2_PLACEMENT_3D('',#775,#776,#777);
#779=PLANE('',#778);
#780=ORIENTED_EDGE('',*,*,#770,.F.);
#781=CARTESIAN_POINT('',(-2.000000000000000,-2.498002E-016,0.0));
#782=VERTEX_POINT('',#781);
#783=CARTESIAN_POINT('',(-2.000000000000000,-2.498002E-016,0.0));
#784=DIRECTION('',(-1.0,0.0,0.0));
#785=VECTOR('',#784,36.0);
#786=LINE('',#783,#785);
#787=EDGE_CURVE('',#782,#758,#786,.T.);
#788=ORIENTED_EDGE('',*,*,#787,.F.);
#789=CARTESIAN_POINT('',(-2.000000000000000,-2.498002E-016,1500.0));
#790=VERTEX_POINT('',#789);
#791=CARTESIAN_POINT('',(-2.000000000000000,-2.775558E-016,1500.0));
#792=DIRECTION('',(0.0,0.0,-1.0));
#793=VECTOR('',#792,1500.0);
#794=LINE('',#791,#793);
#795=EDGE_CURVE('',#790,#782,#794,.T.);
#796=ORIENTED_EDGE('',*,*,#795,.F.);
#797=CARTESIAN_POINT('',(-2.000000000000000,-2.498002E-016,1500.0));
#798=DIRECTION('',(-1.0,0.0,0.0));
#799=VECTOR('',#798,36.0);
#800=LINE('',#797,#799);
#801=EDGE_CURVE('',#790,#739,#800,.T.);
#802=ORIENTED_EDGE('',*,*,#801,.T.);
#803=EDGE_LOOP('',(#780,#788,#796,#802));
#804=FACE_OUTER_BOUND('',#803,.T.);
#805=ADVANCED_FACE('',(#804),#779,.T.);
#806=CARTESIAN_POINT('',(-20.0,19.999999999999996,0.0));
#807=DIRECTION('',(0.0,0.0,1.0));
#808=DIRECTION('',(1.0,0.0,0.0));
#809=AXIS2_PLACEMENT_3D('',#806,#807,#808);
#810=PLANE('',#809);
#811=ORIENTED_EDGE('',*,*,#764,.F.);
#812=CARTESIAN_POINT('',(-40.000000000000007,37.999999999999986,0.0));
#813=VERTEX_POINT('',#812);
#814=CARTESIAN_POINT('',(-40.0,1.999999999999995,0.0));
#815=DIRECTION('',(0.0,1.0,0.0));
#816=VECTOR('',#815,35.999999999999993);
#817=LINE('',#814,#816);
#818=EDGE_CURVE('',#750,#813,#817,.T.);
#819=ORIENTED_EDGE('',*,*,#818,.T.);
#820=CARTESIAN_POINT('',(-38.000000000000007,39.999999999999993,0.0));
#821=VERTEX_POINT('',#820);
#822=CARTESIAN_POINT('',(-38.000000000000007,37.999999999999986,0.0));
#823=DIRECTION('',(0.0,0.0,1.000000000000000));
#824=DIRECTION('',(-0.707106781186548,0.707106781186548,0.0));
#825=AXIS2_PLACEMENT_3D('',#822,#823,#824);
#826=CIRCLE('',#825,2.000000000000000);
#827=EDGE_CURVE('',#821,#813,#826,.T.);
#828=ORIENTED_EDGE('',*,*,#827,.F.);
#829=CARTESIAN_POINT('',(-2.000000000000011,40.0,0.0));
#830=VERTEX_POINT('',#829);
#831=CARTESIAN_POINT('',(-38.000000000000007,39.999999999999993,0.0));
#832=DIRECTION('',(1.0,0.0,0.0));
#833=VECTOR('',#832,36.0);
#834=LINE('',#831,#833);
#835=EDGE_CURVE('',#821,#830,#834,.T.);
#836=ORIENTED_EDGE('',*,*,#835,.T.);
#837=CARTESIAN_POINT('',(-1.163414E-014,38.0,0.0));
#838=VERTEX_POINT('',#837);
#839=CARTESIAN_POINT('',(-2.000000000000010,38.0,0.0));
#840=DIRECTION('',(0.0,0.0,1.000000000000000));
#841=DIRECTION('',(0.707106781186547,0.707106781186548,0.0));
#842=AXIS2_PLACEMENT_3D('',#839,#840,#841);
#843=CIRCLE('',#842,2.0);
#844=EDGE_CURVE('',#838,#830,#843,.T.);
#845=ORIENTED_EDGE('',*,*,#844,.F.);
#846=CARTESIAN_POINT('',(-6.123234E-016,2.000000000000002,0.0));
#847=VERTEX_POINT('',#846);
#848=CARTESIAN_POINT('',(-1.163414E-014,38.0,0.0));
#849=DIRECTION('',(0.0,-1.0,0.0));
#850=VECTOR('',#849,36.0);
#851=LINE('',#848,#850);
#852=EDGE_CURVE('',#838,#847,#851,.T.);
#853=ORIENTED_EDGE('',*,*,#852,.T.);
#854=CARTESIAN_POINT('',(-2.000000000000001,2.000000000000002,0.0));
#855=DIRECTION('',(0.0,0.0,1.0));
#856=DIRECTION('',(0.707106781186547,-0.707106781186548,0.0));
#857=AXIS2_PLACEMENT_3D('',#854,#855,#856);
#858=CIRCLE('',#857,2.0);
#859=EDGE_CURVE('',#782,#847,#858,.T.);
#860=ORIENTED_EDGE('',*,*,#859,.F.);
#861=ORIENTED_EDGE('',*,*,#787,.T.);
#862=EDGE_LOOP('',(#811,#819,#828,#836,#845,#853,#860,#861));
#863=FACE_OUTER_BOUND('',#862,.T.);
#864=CARTESIAN_POINT('',(-36.000000000000007,33.999999999999993,0.0));
#865=VERTEX_POINT('',#864);
#866=CARTESIAN_POINT('',(-36.0,5.999999999999997,0.0));
#867=VERTEX_POINT('',#866);
#868=CARTESIAN_POINT('',(-36.000000000000007,33.999999999999993,0.0));
#869=DIRECTION('',(0.0,-1.0,0.0));
#870=VECTOR('',#869,27.999999999999996);
#871=LINE('',#868,#870);
#872=EDGE_CURVE('',#865,#867,#871,.T.);
#873=ORIENTED_EDGE('',*,*,#872,.T.);
#874=CARTESIAN_POINT('',(-34.0,4.000000000000001,0.0));
#875=VERTEX_POINT('',#874);
#876=CARTESIAN_POINT('',(-34.0,5.999999999999998,0.0));
#877=DIRECTION('',(0.0,0.0,-1.0));
#878=DIRECTION('',(-0.707106781186548,-0.707106781186547,0.0));
#879=AXIS2_PLACEMENT_3D('',#876,#877,#878);
#880=CIRCLE('',#879,2.0);
#881=EDGE_CURVE('',#875,#867,#880,.T.);
#882=ORIENTED_EDGE('',*,*,#881,.F.);
#883=CARTESIAN_POINT('',(-6.000000000000004,3.999999999999999,0.0));
#884=VERTEX_POINT('',#883);
#885=CARTESIAN_POINT('',(-34.0,4.000000000000001,0.0));
#886=DIRECTION('',(1.0,0.0,0.0));
#887=VECTOR('',#886,27.999999999999996);
#888=LINE('',#885,#887);
#889=EDGE_CURVE('',#875,#884,#888,.T.);
#890=ORIENTED_EDGE('',*,*,#889,.T.);
#891=CARTESIAN_POINT('',(-4.000000000000004,5.999999999999996,0.0));
#892=VERTEX_POINT('',#891);
#893=CARTESIAN_POINT('',(-6.000000000000004,5.999999999999996,0.0));
#894=DIRECTION('',(0.0,0.0,-1.000000000000000));
#895=DIRECTION('',(0.707106781186548,-0.707106781186548,0.0));
#896=AXIS2_PLACEMENT_3D('',#893,#894,#895);
#897=CIRCLE('',#896,2.000000000000000);
#898=EDGE_CURVE('',#892,#884,#897,.T.);
#899=ORIENTED_EDGE('',*,*,#898,.F.);
#900=CARTESIAN_POINT('',(-4.000000000000007,33.999999999999993,0.0));
#901=VERTEX_POINT('',#900);
#902=CARTESIAN_POINT('',(-4.000000000000004,6.0,0.0));
#903=DIRECTION('',(0.0,1.0,0.0));
#904=VECTOR('',#903,28.0);
#905=LINE('',#902,#904);
#906=EDGE_CURVE('',#892,#901,#905,.T.);
#907=ORIENTED_EDGE('',*,*,#906,.T.);
#908=CARTESIAN_POINT('',(-6.000000000000005,36.0,0.0));
#909=VERTEX_POINT('',#908);
#910=CARTESIAN_POINT('',(-6.000000000000007,33.999999999999993,0.0));
#911=DIRECTION('',(0.0,0.0,-1.0));
#912=DIRECTION('',(0.707106781186547,0.707106781186548,0.0));
#913=AXIS2_PLACEMENT_3D('',#910,#911,#912);
#914=CIRCLE('',#913,2.000000000000000);
#915=EDGE_CURVE('',#909,#901,#914,.T.);
#916=ORIENTED_EDGE('',*,*,#915,.F.);
#917=CARTESIAN_POINT('',(-34.000000000000007,36.0,0.0));
#918=VERTEX_POINT('',#917);
#919=CARTESIAN_POINT('',(-6.000000000000007,36.0,0.0));
#920=DIRECTION('',(-1.0,0.0,0.0));
#921=VECTOR('',#920,28.0);
#922=LINE('',#919,#921);
#923=EDGE_CURVE('',#909,#918,#922,.T.);
#924=ORIENTED_EDGE('',*,*,#923,.T.);
#925=CARTESIAN_POINT('',(-34.000000000000007,33.999999999999993,0.0));
#926=DIRECTION('',(0.0,0.0,-1.000000000000000));
#927=DIRECTION('',(-0.707106781186548,0.707106781186548,0.0));
#928=AXIS2_PLACEMENT_3D('',#925,#926,#927);
#929=CIRCLE('',#928,2.000000000000000);
#930=EDGE_CURVE('',#865,#918,#929,.T.);
#931=ORIENTED_EDGE('',*,*,#930,.F.);
#932=EDGE_LOOP('',(#873,#882,#890,#899,#907,#916,#924,#931));
#933=FACE_BOUND('',#932,.T.);
#934=ADVANCED_FACE('',(#863,#933),#810,.F.);
#935=CARTESIAN_POINT('',(-34.0,5.999999999999998,0.0));
#936=DIRECTION('',(0.0,0.0,1.0));
#937=DIRECTION('',(-0.707106781186548,-0.707106781186547,0.0));
#938=AXIS2_PLACEMENT_3D('',#935,#936,#937);
#939=CYLINDRICAL_SURFACE('',#938,2.0);
#940=ORIENTED_EDGE('',*,*,#881,.T.);
#941=CARTESIAN_POINT('',(-36.0,5.999999999999997,1500.0));
#942=VERTEX_POINT('',#941);
#943=CARTESIAN_POINT('',(-36.0,5.999999999999997,0.0));
#944=DIRECTION('',(0.0,0.0,1.0));
#945=VECTOR('',#944,1500.0);
#946=LINE('',#943,#945);
#947=EDGE_CURVE('',#867,#942,#946,.T.);
#948=ORIENTED_EDGE('',*,*,#947,.T.);
#949=CARTESIAN_POINT('',(-34.0,4.000000000000001,1500.0));
#950=VERTEX_POINT('',#949);
#951=CARTESIAN_POINT('',(-34.0,5.999999999999998,1500.0));
#952=DIRECTION('',(0.0,0.0,1.0));
#953=DIRECTION('',(-0.707106781186548,-0.707106781186547,0.0));
#954=AXIS2_PLACEMENT_3D('',#951,#952,#953);
#955=CIRCLE('',#954,2.0);
#956=EDGE_CURVE('',#942,#950,#955,.T.);
#957=ORIENTED_EDGE('',*,*,#956,.T.);
#958=CARTESIAN_POINT('',(-34.0,3.999999999999999,1500.0));
#959=DIRECTION('',(0.0,0.0,-1.0));
#960=VECTOR('',#959,1500.0);
#961=LINE('',#958,#960);
#962=EDGE_CURVE('',#950,#875,#961,.T.);
#963=ORIENTED_EDGE('',*,*,#962,.T.);
#964=EDGE_LOOP('',(#940,#948,#957,#963));
#965=FACE_OUTER_BOUND('',#964,.T.);
#966=ADVANCED_FACE('',(#965),#939,.F.);
#967=CARTESIAN_POINT('',(-36.0,3.999999999999999,0.0));
#968=DIRECTION('',(-1.0,0.0,0.0));
#969=DIRECTION('',(0.0,0.0,1.0));
#970=AXIS2_PLACEMENT_3D('',#967,#968,#969);
#971=PLANE('',#970);
#972=ORIENTED_EDGE('',*,*,#947,.F.);
#973=ORIENTED_EDGE('',*,*,#872,.F.);
#974=CARTESIAN_POINT('',(-36.000000000000007,33.999999999999993,1500.0));
#975=VERTEX_POINT('',#974);
#976=CARTESIAN_POINT('',(-36.000000000000007,33.999999999999993,1500.0));
#977=DIRECTION('',(0.0,0.0,-1.0));
#978=VECTOR('',#977,1500.0);
#979=LINE('',#976,#978);
#980=EDGE_CURVE('',#975,#865,#979,.T.);
#981=ORIENTED_EDGE('',*,*,#980,.F.);
#982=CARTESIAN_POINT('',(-36.0,5.999999999999997,1500.0));
#983=DIRECTION('',(0.0,1.0,0.0));
#984=VECTOR('',#983,27.999999999999996);
#985=LINE('',#982,#984);
#986=EDGE_CURVE('',#942,#975,#985,.T.);
#987=ORIENTED_EDGE('',*,*,#986,.F.);
#988=EDGE_LOOP('',(#972,#973,#981,#987));
#989=FACE_OUTER_BOUND('',#988,.T.);
#990=ADVANCED_FACE('',(#989),#971,.F.);
#991=CARTESIAN_POINT('',(-2.000000000000010,38.0,0.0));
#992=DIRECTION('',(0.0,0.0,1.0));
#993=DIRECTION('',(0.707106781186547,0.707106781186548,0.0));
#994=AXIS2_PLACEMENT_3D('',#991,#992,#993);
#995=CYLINDRICAL_SURFACE('',#994,2.0);
#996=CARTESIAN_POINT('',(-2.000000000000011,40.0,1500.0));
#997=VERTEX_POINT('',#996);
#998=CARTESIAN_POINT('',(-1.163414E-014,38.0,1500.0));
#999=VERTEX_POINT('',#998);
#1000=CARTESIAN_POINT('',(-2.000000000000010,38.0,1500.0));
#1001=DIRECTION('',(0.0,0.0,-1.000000000000000));
#1002=DIRECTION('',(0.707106781186547,0.707106781186548,0.0));
#1003=AXIS2_PLACEMENT_3D('',#1000,#1001,#1002);
#1004=CIRCLE('',#1003,2.0);
#1005=EDGE_CURVE('',#997,#999,#1004,.T.);
#1006=ORIENTED_EDGE('',*,*,#1005,.T.);
#1007=CARTESIAN_POINT('',(-1.165734E-014,38.0,1500.0));
#1008=DIRECTION('',(0.0,0.0,-1.0));
#1009=VECTOR('',#1008,1500.0);
#1010=LINE('',#1007,#1009);
#1011=EDGE_CURVE('',#999,#838,#1010,.T.);
#1012=ORIENTED_EDGE('',*,*,#1011,.T.);
#1013=ORIENTED_EDGE('',*,*,#844,.T.);
#1014=CARTESIAN_POINT('',(-2.000000000000011,40.0,0.0));
#1015=DIRECTION('',(0.0,0.0,1.0));
#1016=VECTOR('',#1015,1500.0);
#1017=LINE('',#1014,#1016);
#1018=EDGE_CURVE('',#830,#997,#1017,.T.);
#1019=ORIENTED_EDGE('',*,*,#1018,.T.);
#1020=EDGE_LOOP('',(#1006,#1012,#1013,#1019));
#1021=FACE_OUTER_BOUND('',#1020,.T.);
#1022=ADVANCED_FACE('',(#1021),#995,.T.);
#1023=CARTESIAN_POINT('',(-40.000000000000007,39.999999999999993,0.0));
#1024=DIRECTION('',(0.0,1.0,0.0));
#1025=DIRECTION('',(0.0,0.0,1.0));
#1026=AXIS2_PLACEMENT_3D('',#1023,#1024,#1025);
#1027=PLANE('',#1026);
#1028=ORIENTED_EDGE('',*,*,#1018,.F.);
#1029=ORIENTED_EDGE('',*,*,#835,.F.);
#1030=CARTESIAN_POINT('',(-38.000000000000007,39.999999999999993,1500.0));
#1031=VERTEX_POINT('',#1030);
#1032=CARTESIAN_POINT('',(-38.000000000000007,39.999999999999993,1500.0));
#1033=DIRECTION('',(0.0,0.0,-1.0));
#1034=VECTOR('',#1033,1500.0);
#1035=LINE('',#1032,#1034);
#1036=EDGE_CURVE('',#1031,#821,#1035,.T.);
#1037=ORIENTED_EDGE('',*,*,#1036,.F.);
#1038=CARTESIAN_POINT('',(-38.000000000000007,39.999999999999993,1500.0));
#1039=DIRECTION('',(1.0,0.0,0.0));
#1040=VECTOR('',#1039,36.0);
#1041=LINE('',#1038,#1040);
#1042=EDGE_CURVE('',#1031,#997,#1041,.T.);
#1043=ORIENTED_EDGE('',*,*,#1042,.T.);
#1044=EDGE_LOOP('',(#1028,#1029,#1037,#1043));
#1045=FACE_OUTER_BOUND('',#1044,.T.);
#1046=ADVANCED_FACE('',(#1045),#1027,.T.);
#1047=CARTESIAN_POINT('',(-6.000000000000007,33.999999999999993,0.0));
#1048=DIRECTION('',(0.0,0.0,1.0));
#1049=DIRECTION('',(0.707106781186547,0.707106781186548,0.0));
#1050=AXIS2_PLACEMENT_3D('',#1047,#1048,#1049);
#1051=CYLINDRICAL_SURFACE('',#1050,2.000000000000000);
#1052=ORIENTED_EDGE('',*,*,#915,.T.);
#1053=CARTESIAN_POINT('',(-4.000000000000007,33.999999999999993,1500.0));
#1054=VERTEX_POINT('',#1053);
#1055=CARTESIAN_POINT('',(-4.000000000000008,33.999999999999993,0.0));
#1056=DIRECTION('',(0.0,0.0,1.0));
#1057=VECTOR('',#1056,1500.0);
#1058=LINE('',#1055,#1057);
#1059=EDGE_CURVE('',#901,#1054,#1058,.T.);
#1060=ORIENTED_EDGE('',*,*,#1059,.T.);
#1061=CARTESIAN_POINT('',(-6.000000000000005,36.0,1500.0));
#1062=VERTEX_POINT('',#1061);
#1063=CARTESIAN_POINT('',(-6.000000000000007,33.999999999999993,1500.0));
#1064=DIRECTION('',(0.0,0.0,1.0));
#1065=DIRECTION('',(0.707106781186547,0.707106781186548,0.0));
#1066=AXIS2_PLACEMENT_3D('',#1063,#1064,#1065);
#1067=CIRCLE('',#1066,2.000000000000000);
#1068=EDGE_CURVE('',#1054,#1062,#1067,.T.);
#1069=ORIENTED_EDGE('',*,*,#1068,.T.);
#1070=CARTESIAN_POINT('',(-6.000000000000007,36.0,1500.0));
#1071=DIRECTION('',(0.0,0.0,-1.0));
#1072=VECTOR('',#1071,1500.0);
#1073=LINE('',#1070,#1072);
#1074=EDGE_CURVE('',#1062,#909,#1073,.T.);
#1075=ORIENTED_EDGE('',*,*,#1074,.T.);
#1076=EDGE_LOOP('',(#1052,#1060,#1069,#1075));
#1077=FACE_OUTER_BOUND('',#1076,.T.);
#1078=ADVANCED_FACE('',(#1077),#1051,.F.);
#1079=CARTESIAN_POINT('',(-4.000000000000008,36.0,0.0));
#1080=DIRECTION('',(1.0,0.0,0.0));
#1081=DIRECTION('',(0.0,0.0,-1.0));
#1082=AXIS2_PLACEMENT_3D('',#1079,#1080,#1081);
#1083=PLANE('',#1082);
#1084=ORIENTED_EDGE('',*,*,#1059,.F.);
#1085=ORIENTED_EDGE('',*,*,#906,.F.);
#1086=CARTESIAN_POINT('',(-4.000000000000004,5.999999999999996,1500.0));
#1087=VERTEX_POINT('',#1086);
#1088=CARTESIAN_POINT('',(-4.000000000000004,5.999999999999996,1500.0));
#1089=DIRECTION('',(0.0,0.0,-1.0));
#1090=VECTOR('',#1089,1500.0);
#1091=LINE('',#1088,#1090);
#1092=EDGE_CURVE('',#1087,#892,#1091,.T.);
#1093=ORIENTED_EDGE('',*,*,#1092,.F.);
#1094=CARTESIAN_POINT('',(-4.000000000000008,34.0,1500.0));
#1095=DIRECTION('',(0.0,-1.0,0.0));
#1096=VECTOR('',#1095,28.0);
#1097=LINE('',#1094,#1096);
#1098=EDGE_CURVE('',#1054,#1087,#1097,.T.);
#1099=ORIENTED_EDGE('',*,*,#1098,.F.);
#1100=EDGE_LOOP('',(#1084,#1085,#1093,#1099));
#1101=FACE_OUTER_BOUND('',#1100,.T.);
#1102=ADVANCED_FACE('',(#1101),#1083,.F.);
#1103=CARTESIAN_POINT('',(-38.000000000000007,37.999999999999986,0.0));
#1104=DIRECTION('',(0.0,0.0,1.0));
#1105=DIRECTION('',(-0.707106781186548,0.707106781186548,0.0));
#1106=AXIS2_PLACEMENT_3D('',#1103,#1104,#1105);
#1107=CYLINDRICAL_SURFACE('',#1106,2.000000000000000);
#1108=CARTESIAN_POINT('',(-40.000000000000007,37.999999999999986,1500.0));
#1109=VERTEX_POINT('',#1108);
#1110=CARTESIAN_POINT('',(-38.000000000000007,37.999999999999986,1500.0));
#1111=DIRECTION('',(0.0,0.0,-1.000000000000000));
#1112=DIRECTION('',(-0.707106781186548,0.707106781186548,0.0));
#1113=AXIS2_PLACEMENT_3D('',#1110,#1111,#1112);
#1114=CIRCLE('',#1113,2.000000000000000);
#1115=EDGE_CURVE('',#1109,#1031,#1114,.T.);
#1116=ORIENTED_EDGE('',*,*,#1115,.T.);
#1117=ORIENTED_EDGE('',*,*,#1036,.T.);
#1118=ORIENTED_EDGE('',*,*,#827,.T.);
#1119=CARTESIAN_POINT('',(-40.000000000000007,37.999999999999986,0.0));
#1120=DIRECTION('',(0.0,0.0,1.0));
#1121=VECTOR('',#1120,1500.0);
#1122=LINE('',#1119,#1121);
#1123=EDGE_CURVE('',#813,#1109,#1122,.T.);
#1124=ORIENTED_EDGE('',*,*,#1123,.T.);
#1125=EDGE_LOOP('',(#1116,#1117,#1118,#1124));
#1126=FACE_OUTER_BOUND('',#1125,.T.);
#1127=ADVANCED_FACE('',(#1126),#1107,.T.);
#1128=CARTESIAN_POINT('',(-40.0,-4.996004E-015,0.0));
#1129=DIRECTION('',(-1.0,0.0,0.0));
#1130=DIRECTION('',(0.0,0.0,1.0));
#1131=AXIS2_PLACEMENT_3D('',#1128,#1129,#1130);
#1132=PLANE('',#1131);
#1133=ORIENTED_EDGE('',*,*,#755,.F.);
#1134=CARTESIAN_POINT('',(-40.0,1.999999999999995,1500.0));
#1135=DIRECTION('',(0.0,1.0,0.0));
#1136=VECTOR('',#1135,35.999999999999993);
#1137=LINE('',#1134,#1136);
#1138=EDGE_CURVE('',#741,#1109,#1137,.T.);
#1139=ORIENTED_EDGE('',*,*,#1138,.T.);
#1140=ORIENTED_EDGE('',*,*,#1123,.F.);
#1141=ORIENTED_EDGE('',*,*,#818,.F.);
#1142=EDGE_LOOP('',(#1133,#1139,#1140,#1141));
#1143=FACE_OUTER_BOUND('',#1142,.T.);
#1144=ADVANCED_FACE('',(#1143),#1132,.T.);
#1145=CARTESIAN_POINT('',(-34.000000000000007,33.999999999999993,0.0));
#1146=DIRECTION('',(0.0,0.0,1.0));
#1147=DIRECTION('',(-0.707106781186548,0.707106781186548,0.0));
#1148=AXIS2_PLACEMENT_3D('',#1145,#1146,#1147);
#1149=CYLINDRICAL_SURFACE('',#1148,2.000000000000000);
#1150=ORIENTED_EDGE('',*,*,#930,.T.);
#1151=CARTESIAN_POINT('',(-34.000000000000007,36.0,1500.0));
#1152=VERTEX_POINT('',#1151);
#1153=CARTESIAN_POINT('',(-34.000000000000007,36.0,0.0));
#1154=DIRECTION('',(0.0,0.0,1.0));
#1155=VECTOR('',#1154,1500.0);
#1156=LINE('',#1153,#1155);
#1157=EDGE_CURVE('',#918,#1152,#1156,.T.);
#1158=ORIENTED_EDGE('',*,*,#1157,.T.);
#1159=CARTESIAN_POINT('',(-34.000000000000007,33.999999999999993,1500.0));
#1160=DIRECTION('',(0.0,0.0,1.000000000000000));
#1161=DIRECTION('',(-0.707106781186548,0.707106781186548,0.0));
#1162=AXIS2_PLACEMENT_3D('',#1159,#1160,#1161);
#1163=CIRCLE('',#1162,2.000000000000000);
#1164=EDGE_CURVE('',#1152,#975,#1163,.T.);
#1165=ORIENTED_EDGE('',*,*,#1164,.T.);
#1166=ORIENTED_EDGE('',*,*,#980,.T.);
#1167=EDGE_LOOP('',(#1150,#1158,#1165,#1166));
#1168=FACE_OUTER_BOUND('',#1167,.T.);
#1169=ADVANCED_FACE('',(#1168),#1149,.F.);
#1170=CARTESIAN_POINT('',(-36.000000000000007,36.0,0.0));
#1171=DIRECTION('',(0.0,1.0,0.0));
#1172=DIRECTION('',(0.0,0.0,1.0));
#1173=AXIS2_PLACEMENT_3D('',#1170,#1171,#1172);
#1174=PLANE('',#1173);
#1175=ORIENTED_EDGE('',*,*,#1074,.F.);
#1176=CARTESIAN_POINT('',(-34.000000000000007,36.0,1500.0));
#1177=DIRECTION('',(1.0,0.0,0.0));
#1178=VECTOR('',#1177,28.0);
#1179=LINE('',#1176,#1178);
#1180=EDGE_CURVE('',#1152,#1062,#1179,.T.);
#1181=ORIENTED_EDGE('',*,*,#1180,.F.);
#1182=ORIENTED_EDGE('',*,*,#1157,.F.);
#1183=ORIENTED_EDGE('',*,*,#923,.F.);
#1184=EDGE_LOOP('',(#1175,#1181,#1182,#1183));
#1185=FACE_OUTER_BOUND('',#1184,.T.);
#1186=ADVANCED_FACE('',(#1185),#1174,.F.);
#1187=CARTESIAN_POINT('',(-6.000000000000004,5.999999999999996,0.0));
#1188=DIRECTION('',(0.0,0.0,1.0));
#1189=DIRECTION('',(0.707106781186548,-0.707106781186548,0.0));
#1190=AXIS2_PLACEMENT_3D('',#1187,#1188,#1189);
#1191=CYLINDRICAL_SURFACE('',#1190,2.000000000000000);
#1192=ORIENTED_EDGE('',*,*,#898,.T.);
#1193=CARTESIAN_POINT('',(-6.000000000000004,3.999999999999999,1500.0));
#1194=VERTEX_POINT('',#1193);
#1195=CARTESIAN_POINT('',(-6.000000000000004,3.999999999999997,0.0));
#1196=DIRECTION('',(0.0,0.0,1.0));
#1197=VECTOR('',#1196,1500.0);
#1198=LINE('',#1195,#1197);
#1199=EDGE_CURVE('',#884,#1194,#1198,.T.);
#1200=ORIENTED_EDGE('',*,*,#1199,.T.);
#1201=CARTESIAN_POINT('',(-6.000000000000004,5.999999999999996,1500.0));
#1202=DIRECTION('',(0.0,0.0,1.000000000000000));
#1203=DIRECTION('',(0.707106781186548,-0.707106781186548,0.0));
#1204=AXIS2_PLACEMENT_3D('',#1201,#1202,#1203);
#1205=CIRCLE('',#1204,2.000000000000000);
#1206=EDGE_CURVE('',#1194,#1087,#1205,.T.);
#1207=ORIENTED_EDGE('',*,*,#1206,.T.);
#1208=ORIENTED_EDGE('',*,*,#1092,.T.);
#1209=EDGE_LOOP('',(#1192,#1200,#1207,#1208));
#1210=FACE_OUTER_BOUND('',#1209,.T.);
#1211=ADVANCED_FACE('',(#1210),#1191,.F.);
#1212=CARTESIAN_POINT('',(-4.000000000000004,3.999999999999997,0.0));
#1213=DIRECTION('',(0.0,-1.0,0.0));
#1214=DIRECTION('',(0.0,0.0,-1.0));
#1215=AXIS2_PLACEMENT_3D('',#1212,#1213,#1214);
#1216=PLANE('',#1215);
#1217=ORIENTED_EDGE('',*,*,#962,.F.);
#1218=CARTESIAN_POINT('',(-6.000000000000004,3.999999999999999,1500.0));
#1219=DIRECTION('',(-1.0,0.0,0.0));
#1220=VECTOR('',#1219,27.999999999999996);
#1221=LINE('',#1218,#1220);
#1222=EDGE_CURVE('',#1194,#950,#1221,.T.);
#1223=ORIENTED_EDGE('',*,*,#1222,.F.);
#1224=ORIENTED_EDGE('',*,*,#1199,.F.);
#1225=ORIENTED_EDGE('',*,*,#889,.F.);
#1226=EDGE_LOOP('',(#1217,#1223,#1224,#1225));
#1227=FACE_OUTER_BOUND('',#1226,.T.);
#1228=ADVANCED_FACE('',(#1227),#1216,.F.);
#1229=CARTESIAN_POINT('',(-2.000000000000001,2.000000000000002,0.0));
#1230=DIRECTION('',(0.0,0.0,1.0));
#1231=DIRECTION('',(0.707106781186547,-0.707106781186548,0.0));
#1232=AXIS2_PLACEMENT_3D('',#1229,#1230,#1231);
#1233=CYLINDRICAL_SURFACE('',#1232,2.0);
#1234=CARTESIAN_POINT('',(-6.123234E-016,2.000000000000002,1500.0));
#1235=VERTEX_POINT('',#1234);
#1236=CARTESIAN_POINT('',(-2.000000000000001,2.000000000000002,1500.0));
#1237=DIRECTION('',(0.0,0.0,-1.0));
#1238=DIRECTION('',(0.707106781186547,-0.707106781186548,0.0));
#1239=AXIS2_PLACEMENT_3D('',#1236,#1237,#1238);
#1240=CIRCLE('',#1239,2.0);
#1241=EDGE_CURVE('',#1235,#790,#1240,.T.);
#1242=ORIENTED_EDGE('',*,*,#1241,.T.);
#1243=ORIENTED_EDGE('',*,*,#795,.T.);
#1244=ORIENTED_EDGE('',*,*,#859,.T.);
#1245=CARTESIAN_POINT('',(-5.551115E-016,2.000000000000002,0.0));
#1246=DIRECTION('',(0.0,0.0,1.0));
#1247=VECTOR('',#1246,1500.0);
#1248=LINE('',#1245,#1247);
#1249=EDGE_CURVE('',#847,#1235,#1248,.T.);
#1250=ORIENTED_EDGE('',*,*,#1249,.T.);
#1251=EDGE_LOOP('',(#1242,#1243,#1244,#1250));
#1252=FACE_OUTER_BOUND('',#1251,.T.);
#1253=ADVANCED_FACE('',(#1252),#1233,.T.);
#1254=CARTESIAN_POINT('',(-1.224647E-014,40.0,0.0));
#1255=DIRECTION('',(1.0,0.0,0.0));
#1256=DIRECTION('',(0.0,0.0,-1.0));
#1257=AXIS2_PLACEMENT_3D('',#1254,#1255,#1256);
#1258=PLANE('',#1257);
#1259=ORIENTED_EDGE('',*,*,#1011,.F.);
#1260=CARTESIAN_POINT('',(-1.163414E-014,38.0,1500.0));
#1261=DIRECTION('',(0.0,-1.0,0.0));
#1262=VECTOR('',#1261,36.0);
#1263=LINE('',#1260,#1262);
#1264=EDGE_CURVE('',#999,#1235,#1263,.T.);
#1265=ORIENTED_EDGE('',*,*,#1264,.T.);
#1266=ORIENTED_EDGE('',*,*,#1249,.F.);
#1267=ORIENTED_EDGE('',*,*,#852,.F.);
#1268=EDGE_LOOP('',(#1259,#1265,#1266,#1267));
#1269=FACE_OUTER_BOUND('',#1268,.T.);
#1270=ADVANCED_FACE('',(#1269),#1258,.T.);
#1271=CARTESIAN_POINT('',(-20.0,19.999999999999996,1500.0));
#1272=DIRECTION('',(0.0,0.0,1.0));
#1273=DIRECTION('',(1.0,0.0,0.0));
#1274=AXIS2_PLACEMENT_3D('',#1271,#1272,#1273);
#1275=PLANE('',#1274);
#1276=ORIENTED_EDGE('',*,*,#747,.F.);
#1277=ORIENTED_EDGE('',*,*,#801,.F.);
#1278=ORIENTED_EDGE('',*,*,#1241,.F.);
#1279=ORIENTED_EDGE('',*,*,#1264,.F.);
#1280=ORIENTED_EDGE('',*,*,#1005,.F.);
#1281=ORIENTED_EDGE('',*,*,#1042,.F.);
#1282=ORIENTED_EDGE('',*,*,#1115,.F.);
#1283=ORIENTED_EDGE('',*,*,#1138,.F.);
#1284=EDGE_LOOP('',(#1276,#1277,#1278,#1279,#1280,#1281,#1282,#1283));
#1285=FACE_OUTER_BOUND('',#1284,.T.);
#1286=ORIENTED_EDGE('',*,*,#986,.T.);
#1287=ORIENTED_EDGE('',*,*,#1164,.F.);
#1288=ORIENTED_EDGE('',*,*,#1180,.T.);
#1289=ORIENTED_EDGE('',*,*,#1068,.F.);
#1290=ORIENTED_EDGE('',*,*,#1098,.T.);
#1291=ORIENTED_EDGE('',*,*,#1206,.F.);
#1292=ORIENTED_EDGE('',*,*,#1222,.T.);
#1293=ORIENTED_EDGE('',*,*,#956,.F.);
#1294=EDGE_LOOP('',(#1286,#1287,#1288,#1289,#1290,#1291,#1292,#1293));
#1295=FACE_BOUND('',#1294,.T.);
#1296=ADVANCED_FACE('',(#1285,#1295),#1275,.T.);
#1297=CLOSED_SHELL('',(#774,#805,#934,#966,#990,#1022,#1046,#1078,#1102,#1127,#1144,#1169,#1186,#1211,#1228,#1253,#1270,#1296));
#1298=MANIFOLD_SOLID_BREP('S\S\slido1',#1297);
#1299=STYLED_ITEM('',(#653),#1298);
#1300=ADVANCED_BREP_SHAPE_REPRESENTATION('ABSR',(#1298),#701);
#1301=SHAPE_REPRESENTATION_RELATIONSHIP('SRR','None',#1300,#706);
#1302=AXIS2_PLACEMENT_3D('',#1303,#1304,#1305);
#1303=CARTESIAN_POINT('',(126.847735572469760,159.999999999999940,9.999999999999996));
#1304=DIRECTION('',(-7.933322E-017,1.078521E-032,1.000000000000000));
#1305=DIRECTION('',(1.000000000000005,-2.775558E-016,6.162976E-033));
#1306=NEXT_ASSEMBLY_USAGE_OCCURRENCE('Travesa\S\qo:1','Travesa\S\qo:1','Travesa\S\qo:1',#12,#677,'Travesa\S\qo:1');
#1307=PRODUCT_DEFINITION_SHAPE('Travesa\S\qo:1','Travesa\S\qo:1',#1306);
#1308=ITEM_DEFINED_TRANSFORMATION('Travesa\S\qo:1','Travesa\S\qo:1',#702,#1302);
#1312=(REPRESENTATION_RELATIONSHIP('Travesa\S\qo:1','Travesa\S\qo:1',#706,#41)REPRESENTATION_RELATIONSHIP_WITH_TRANSFORMATION(#1308)SHAPE_REPRESENTATION_RELATIONSHIP());
#1313=CONTEXT_DEPENDENT_SHAPE_REPRESENTATION(#1312,#1307);
#1314=AXIS2_PLACEMENT_3D('',#1315,#1316,#1317);
#1315=CARTESIAN_POINT('',(213.695471144939180,3.530401E-014,1519.999999999999800));
#1316=DIRECTION('',(0.0,-2.654543E-017,-1.0));
#1317=DIRECTION('',(-1.0,5.551115E-017,-1.473567E-033));
#1318=NEXT_ASSEMBLY_USAGE_OCCURRENCE('presor_v3:2','presor_v3:2','presor_v3:2',#12,#51,'presor_v3:2');
#1319=PRODUCT_DEFINITION_SHAPE('presor_v3:2','presor_v3:2',#1318);
#1320=ITEM_DEFINED_TRANSFORMATION('presor_v3:2','presor_v3:2',#76,#1314);
#1324=(REPRESENTATION_RELATIONSHIP('presor_v3:2','presor_v3:2',#80,#41)REPRESENTATION_RELATIONSHIP_WITH_TRANSFORMATION(#1320)SHAPE_REPRESENTATION_RELATIONSHIP());
#1325=CONTEXT_DEPENDENT_SHAPE_REPRESENTATION(#1324,#1319);
ENDSEC;
END-ISO-10303-21;
